170102_2_0_Петров Б.А._3,4,4,4,3
170103_3_0_Тюрин Е.Т._4,5,5,4
170104_1_0_Волков Е.А._4,5,5,4,3
170105_1_0_Сергеев В.Г._4,5,5,4,3
170106_2_0_Попов С.Г._5,5,5,4,3
170107_1_0_Васильев Т.Д._4,5,4,4,4
170108_2_0_Радионов А.П._3,5,5
170109_3_0_Жуков Ю.Ю._4,5,5,4,3
170110_1_0_Вавилов С.С._4,3,3,4,3
170111_2_0_Сим А.С._3,3,3
170112_3_0_Шершнев Л.Т._4,5,5,4,3
170113_1_0_Сковорода Г.Д._4,5,5,4,3
170114_2_0_Гришин Г.Г._4,3,3,3,3
170115_2_0_Путин К.А._4,4,4,4,3
170116_1_0_Стрельцов А.Р._4,5,5,4,3
170117_2_1_Савельев А.Л._4,5,4,4,4
170118_3_0_Зубов Е.Д._4,5,5,4,3
170119_1_0_Калинин А.С._4,5,5,4,3
170121_3_0_Сноу Дж.Э._4,5,5,4,3
170122_3_0_Шилов А.Ю._4,5,5
170123_1_1_Осипов О.Г._4,5,5,4,5
170124_2_0_Исаев Л.И._4,3,5,4,3
170125_1_0_Зайнагутдинов А.Г._4,5,3
170126_2_0_Кучин Я.Г._4,3,5,4,3
170127_3_0_Яковлев А.М._4,4,5,4,3
170128_1_0_Дзержинский Ф.Э._3,5,5,4,3
170129_2_0_Сталин И.В._3,5,5,4,3
170130_3_0_Акинфеев Е.А._3,5,5,4,3
170131_2_0_Сурков Н.В._4,3,5,4,3
170132_3_0_Ивов А.О._4,4,5,4,3
170133_2_0_Жуков Б.Г._5,5,5
170101_1_0_Иванов А.Г._4,4,5
111113_3_0_Малышев Г.Ф._4,5,4
